{
    "moves": [
        {
            "pp": "25", 
            "power": "20", 
            "move_name": "Absorb", 
            "catagory": "Special", 
            "type": "Grass", 
            "accuracy": "100"
        }, 
        {
            "pp": "", 
            "power": "60", 
            "move_name": "Aerial Ace", 
            "catagory": "Physical", 
            "type": "Flying", 
            "accuracy": ""
        }, 
        {
            "pp": "", 
            "power": "", 
            "move_name": "Agility", 
            "catagory": "Status", 
            "type": "Psychic", 
            "accuracy": ""
        }, 
        {
            "pp": "20", 
            "power": "75", 
            "move_name": "Air Slash", 
            "catagory": "Special", 
            "type": "Flying", 
            "accuracy": "95"
        }, 
        {
            "pp": "40", 
            "power": "40", 
            "move_name": "False Swipe", 
            "catagory": "Physical", 
            "type": "Normal", 
            "accuracy": "100"
        }, 
        {
            "pp": "", 
            "power": "150", 
            "move_name": "Frenzy Plant", 
            "catagory": "Special", 
            "type": "Grass", 
            "accuracy": "90"
        }, 
        {
            "pp": "", 
            "power": "75", 
            "move_name": "Giga Drain", 
            "catagory": "Special", 
            "type": "Grass", 
            "accuracy": "100"
        }, 
        {
            "pp": "20", 
            "power": "", 
            "move_name": "Growth", 
            "catagory": "Status", 
            "type": "Grass", 
            "accuracy": ""
        }, 
        {
            "pp": "15", 
            "power": "75", 
            "move_name": "Guardian Leaf", 
            "catagory": "Physical", 
            "type": "Grass", 
            "accuracy": "95"
        }, 
        {
            "pp": "35", 
            "power": "40", 
            "move_name": "Gust", 
            "catagory": "Special", 
            "type": "Flying", 
            "accuracy": "100"
        }, 
        {
            "pp": "", 
            "power": "", 
            "move_name": "Leaf Storm", 
            "catagory": "Special", 
            "type": "Grass ", 
            "accuracy": "100"
        }, 
        {
            "pp": "10", 
            "power": "65", 
            "move_name": "Leaf Tornado", 
            "catagory": "Special", 
            "type": "Grass", 
            "accuracy": "90"
        }, 
        {
            "pp": "10", 
            "power": "", 
            "move_name": "Leech Seed", 
            "catagory": "Status", 
            "type": "Grass", 
            "accuracy": "90"
        }, 
        {
            "pp": "40", 
            "power": "40", 
            "move_name": "Mega Drain", 
            "catagory": "Special", 
            "type": "Grass", 
            "accuracy": "100"
        }, 
        {
            "pp": "25", 
            "power": "55", 
            "move_name": "Razor Leaf", 
            "catagory": "Physical", 
            "type": "Grass", 
            "accuracy": "95"
        }, 
        {
            "pp": "35", 
            "power": "40", 
            "move_name": "Scratch", 
            "catagory": "Physical", 
            "type": "Normal", 
            "accuracy": "100"
        }, 
        {
            "pp": "", 
            "power": "80", 
            "move_name": "Seed Bomb", 
            "catagory": "Physical", 
            "type": "Grass", 
            "accuracy": "100"
        }, 
        {
            "pp": "", 
            "power": "", 
            "move_name": "Synthesis", 
            "catagory": "Status", 
            "type": "Grass", 
            "accuracy": ""
        }, 
        {
            "pp": "30", 
            "power": "", 
            "move_name": "Tail Whip", 
            "catagory": "Status", 
            "type": "Normal", 
            "accuracy": "100"
        }, 
        {
            "pp": "20", 
            "power": "", 
            "move_name": "Whirlwind", 
            "catagory": "Status", 
            "type": "Normal", 
            "accuracy": "100"
        }, 
        {
            "pp": "10", 
            "power": "100", 
            "move_name": "Wild Growth", 
            "catagory": "Physical", 
            "type": "Grass", 
            "accuracy": "95"
        }, 
        {
            "pp": "", 
            "power": "120", 
            "move_name": "Solar Beam", 
            "catagory": "Special", 
            "type": "Grass", 
            "accuracy": "100"
        }, 
        {
            "pp": "", 
            "power": "", 
            "move_name": "Typhoon", 
            "catagory": "Special", 
            "type": "Flying", 
            "accuracy": ""
        }, 
        {
            "pp": "", 
            "power": "90", 
            "move_name": "Leaf Blade", 
            "catagory": "Physical", 
            "type": "Grass", 
            "accuracy": "100"
        }, 
        {
            "pp": "10", 
            "power": "80", 
            "move_name": "Energy Ball", 
            "catagory": "Special", 
            "type": "Grass", 
            "accuracy": "100"
        }, 
        {
            "pp": "5", 
            "power": "85", 
            "move_name": "Bounce", 
            "catagory": "Physical", 
            "type": "Flying", 
            "accuracy": "85"
        }
    ]
}